Week 12 - STEM 691
…
Intro to {gt}

{gt} has built-in datasets for practice

We’ll use exibble & gtcars today

gtcars

# A tibble: 47 × 15
   mfr     model     year trim  bdy_style    hp hp_rpm   trq trq_rpm mpg_c mpg_h
   <chr>   <chr>    <dbl> <chr> <chr>     <dbl>  <dbl> <dbl>   <dbl> <dbl> <dbl>
 1 Ford    GT        2017 Base… coupe       647   6250   550    5900    11    18
 2 Ferrari 458 Spe…  2015 Base… coupe       597   9000   398    6000    13    17
 3 Ferrari 458 Spi…  2015 Base  converti…   562   9000   398    6000    13    17
 4 Ferrari 458 Ita…  2014 Base… coupe       562   9000   398    6000    13    17
 5 Ferrari 488 GTB   2016 Base… coupe       661   8000   561    3000    15    22
 6 Ferrari Califor…  2015 Base… converti…   553   7500   557    4750    16    23
 7 Ferrari GTC4Lus…  2017 Base… coupe       680   8250   514    5750    12    17
 8 Ferrari FF        2015 Base… coupe       652   8000   504    6000    11    16
 9 Ferrari F12Berl…  2015 Base… coupe       731   8250   509    6000    11    16
10 Ferrari LaFerra…  2015 Base… coupe       949   9000   664    6750    12    16
# ℹ 37 more rows
# ℹ 4 more variables: drivetrain <chr>, trsmn <chr>, ctry_origin <chr>,
#   msrp <dbl>
…
The gt_preview() Function

We’ll use the gtcars dataset here.

Note that it has more observations than exibble

gtcars

# A tibble: 47 × 15
   mfr     model     year trim  bdy_style    hp hp_rpm   trq trq_rpm mpg_c mpg_h
   <chr>   <chr>    <dbl> <chr> <chr>     <dbl>  <dbl> <dbl>   <dbl> <dbl> <dbl>
 1 Ford    GT        2017 Base… coupe       647   6250   550    5900    11    18
 2 Ferrari 458 Spe…  2015 Base… coupe       597   9000   398    6000    13    17
 3 Ferrari 458 Spi…  2015 Base  converti…   562   9000   398    6000    13    17
 4 Ferrari 458 Ita…  2014 Base… coupe       562   9000   398    6000    13    17
 5 Ferrari 488 GTB   2016 Base… coupe       661   8000   561    3000    15    22
 6 Ferrari Califor…  2015 Base… converti…   553   7500   557    4750    16    23
 7 Ferrari GTC4Lus…  2017 Base… coupe       680   8250   514    5750    12    17
 8 Ferrari FF        2015 Base… coupe       652   8000   504    6000    11    16
 9 Ferrari F12Berl…  2015 Base… coupe       731   8250   509    6000    11    16
10 Ferrari LaFerra…  2015 Base… coupe       949   9000   664    6750    12    16
# ℹ 37 more rows
# ℹ 4 more variables: drivetrain <chr>, trsmn <chr>, ctry_origin <chr>,
#   msrp <dbl>
…
