Week 9 - STEM 691
…
#remotes::install_github("tidyverse/dsbox")
library(dsbox)

staff <- dsbox::instructors

staff_long <- staff |>
  pivot_longer(cols = -year,
               names_to = "position",
               values_to = "proportion") |>
  mutate(date = as.Date(paste0(year, "-01-01")))

staff_long

# A tibble: 55 × 4
    year position                   proportion date      
   <dbl> <chr>                           <dbl> <date>    
 1  1975 full_time_tenured                29   1975-01-01
 2  1975 full_time_tenure_track           16.1 1975-01-01
 3  1975 full_time_non_tenure_track       10.3 1975-01-01
 4  1975 part_time                        24   1975-01-01
 5  1975 grad_student                     20.5 1975-01-01
 6  1989 full_time_tenured                27.6 1989-01-01
 7  1989 full_time_tenure_track           11.4 1989-01-01
 8  1989 full_time_non_tenure_track       14.1 1989-01-01
 9  1989 part_time                        30.4 1989-01-01
10  1989 grad_student                     16.5 1989-01-01
# ℹ 45 more rows
…
