Week 3 - STEM 691
…
- Note: There are 87 rows in the full starwars dataset

count(var1)

- Count unique values of a variable

starwars |>
  count(species)

# A tibble: 38 × 2
   species       n
   <chr>     <int>
 1 Aleena        1
 2 Besalisk      1
 3 Cerean        1
 4 Chagrian      1
 5 Clawdite      1
 6 Droid         6
 7 Dug           1
 8 Ewok          1
 9 Geonosian     1
10 Gungan        3
# ℹ 28 more rows
…
- Note: There are 87 rows in the full starwars dataset

count(var1,var2)

Count unique values of a variable

Or for a set of variables

starwars |>
  count(homeworld,species)

# A tibble: 57 × 3
   homeworld      species       n
   <chr>          <chr>     <int>
 1 Alderaan       Human         3
 2 Aleen Minor    Aleena        1
 3 Bespin         Human         1
 4 Bestine IV     <NA>          1
 5 Cato Neimoidia Neimodian     1
 6 Cerea          Cerean        1
 7 Champala       Chagrian      1
 8 Chandrila      Human         1
 9 Concord Dawn   Human         1
10 Corellia       Human         2
# ℹ 47 more rows
…
- Note: There are 87 rows in the full starwars dataset

group_by(var1)

Group by a variable and then count

Here: same as count() but in two steps

starwars |>
  group_by(species)|>
  summarize(n = n())

# A tibble: 38 × 2
   species       n
   <chr>     <int>
 1 Aleena        1
 2 Besalisk      1
 3 Cerean        1
 4 Chagrian      1
 5 Clawdite      1
 6 Droid         6
 7 Dug           1
 8 Ewok          1
 9 Geonosian     1
10 Gungan        3
# ℹ 28 more rows
…
- Note: There are 87 rows in the full starwars dataset

group_by() & summarize()

Group by a variable

With summarize() it can do much more!

starwars |>
  group_by(species)|>
  summarize(n = n(),
            proportion = n/nrow(starwars)*100)

# A tibble: 38 × 3
   species       n proportion
   <chr>     <int>      <dbl>
 1 Aleena        1       1.15
 2 Besalisk      1       1.15
 3 Cerean        1       1.15
 4 Chagrian      1       1.15
 5 Clawdite      1       1.15
 6 Droid         6       6.90
 7 Dug           1       1.15
 8 Ewok          1       1.15
 9 Geonosian     1       1.15
10 Gungan        3       3.45
# ℹ 28 more rows
…
group_by() & summarize()

group_by(): groups data by variable(s)

summarize(): supports summary statistics for the group (see summary functions on dplyr cheatsheet!)

starwars |>
  group_by(species)|>
  summarize(mean_height = mean(height, na.rm = TRUE),
            sd_height = sd(height, na.rm = TRUE),
            mean_mass = mean(mass, na.rm = TRUE),
            sd_mass = sd(mass, na.rm = TRUE))

# A tibble: 38 × 5
   species   mean_height sd_height mean_mass sd_mass
   <chr>           <dbl>     <dbl>     <dbl>   <dbl>
 1 Aleena            79       NA        15      NA  
 2 Besalisk         198       NA       102      NA  
 3 Cerean           198       NA        82      NA  
 4 Chagrian         196       NA       NaN      NA  
 5 Clawdite         168       NA        55      NA  
 6 Droid            131.      49.1      69.8    51.0
 7 Dug              112       NA        40      NA  
 8 Ewok              88       NA        20      NA  
 9 Geonosian        183       NA        80      NA  
10 Gungan           209.      14.2      74      11.3
# ℹ 28 more rows
…
group_by() & summarize()

group_by(): groups data by variable(s)

summarize() supports summary statistics for the group

starwars |>
  group_by(species)|>
  summarize(med_height = median(height, na.rm = TRUE),
            IQR_height = IQR(height, na.rm = TRUE),
            med_mass = median(mass, na.rm = TRUE),
            IQR_mass = IQR(mass, na.rm = TRUE))

# A tibble: 38 × 5
   species   med_height IQR_height med_mass IQR_mass
   <chr>          <dbl>      <dbl>    <dbl>    <dbl>
 1 Aleena            79          0     15        0  
 2 Besalisk         198          0    102        0  
 3 Cerean           198          0     82        0  
 4 Chagrian         196          0     NA       NA  
 5 Clawdite         168          0     55        0  
 6 Droid             97         71     53.5     59.2
 7 Dug              112          0     40        0  
 8 Ewok              88          0     20        0  
 9 Geonosian        183          0     80        0  
10 Gungan           206         14     74        8  
# ℹ 28 more rows
…
group_by() & ungroup()

When you use group_by(), you should also use ungroup() when you are finished

Otherwise, it’ll cause you issues later

starwars |>
  group_by(species)|>
  summarize(med_height = median(height, na.rm = TRUE),
            IQR_height = IQR(height, na.rm = TRUE),
            med_mass = median(mass, na.rm = TRUE),
            IQR_mass = IQR(mass, na.rm = TRUE))|>
  ungroup()

# A tibble: 38 × 5
   species   med_height IQR_height med_mass IQR_mass
   <chr>          <dbl>      <dbl>    <dbl>    <dbl>
 1 Aleena            79          0     15        0  
 2 Besalisk         198          0    102        0  
 3 Cerean           198          0     82        0  
 4 Chagrian         196          0     NA       NA  
 5 Clawdite         168          0     55        0  
 6 Droid             97         71     53.5     59.2
 7 Dug              112          0     40        0  
 8 Ewok              88          0     20        0  
 9 Geonosian        183          0     80        0  
10 Gungan           206         14     74        8  
# ℹ 28 more rows
…
arrange()

Orders: the rows in ascending order by variable(s)

starwars |>
  group_by(species)|>
  summarize(med_height = median(height, na.rm = TRUE),
            IQR_height = IQR(height, na.rm = TRUE),
            med_mass = median(mass, na.rm = TRUE),
            IQR_mass = IQR(mass, na.rm = TRUE))|>
  ungroup()|>
  arrange(med_height)

# A tibble: 38 × 5
   species        med_height IQR_height med_mass IQR_mass
   <chr>               <dbl>      <dbl>    <dbl>    <dbl>
 1 Yoda's species         66          0     17        0  
 2 Aleena                 79          0     15        0  
 3 Ewok                   88          0     20        0  
 4 Vulptereen             94          0     45        0  
 5 Droid                  97         71     53.5     59.2
 6 Dug                   112          0     40        0  
 7 Xexto                 122          0     NA       NA  
 8 Toydarian             137          0     NA       NA  
 9 Sullustan             160          0     68        0  
10 Toong                 163          0     65        0  
# ℹ 28 more rows
…
Orders: the rows in ascending order by variable(s)

Adding desc() will order in descending order

starwars |>
  group_by(species)|>
  summarize(med_height = median(height, na.rm = TRUE),
            IQR_height = IQR(height, na.rm = TRUE),
            med_mass = median(mass, na.rm = TRUE),
            IQR_mass = IQR(mass, na.rm = TRUE))|>
  ungroup()|>
  arrange(desc(med_height))

# A tibble: 38 × 5
   species  med_height IQR_height med_mass IQR_mass
   <chr>         <dbl>      <dbl>    <dbl>    <dbl>
 1 Quermian        264          0       NA       NA
 2 Wookiee         231          3      124       12
 3 Kaminoan        221          8       88        0
 4 Kaleesh         216          0      159        0
 5 Gungan          206         14       74        8
 6 Pau'an          206          0       80        0
 7 Besalisk        198          0      102        0
 8 Cerean          198          0       82        0
 9 Chagrian        196          0       NA       NA
10 Nautolan        196          0       87        0
# ℹ 28 more rows
…
